"installment_number","Grade","prepayrate"
1,"AAA",0.067521187924634
2,"AAA",0.0562533713493103
3,"AAA",0.0496572479518475
4,"AAA",0.0385748727564961
5,"AAA",0.035166301343753
6,"AAA",0.0323516766981943
7,"AAA",0.0284226021968067
8,"AAA",0.0253224470476867
9,"AAA",0.0243872245605348
10,"AAA",0.0188654696851418
11,"AAA",0.01
12,"AAA",0.01
13,"AAA",0.01
14,"AAA",0.01
15,"AAA",0.01
16,"AAA",0.01
17,"AAA",0.01
18,"AAA",0.01
19,"AAA",0.01
20,"AAA",0.01
21,"AAA",0.01
22,"AAA",0.01
23,"AAA",0.01
24,"AAA",0.01
25,"AAA",0.01
26,"AAA",0.01
27,"AAA",0.01
28,"AAA",0.01
29,"AAA",0.01
30,"AAA",0.01
31,"AAA",0.00638569604086846
32,"AAA",0.00277777777777778
33,"AAA",0.00604229607250755
34,"AAA",0.00405679513184584
35,"AAA",0.00442477876106195
36,"AAA",0.00987654320987654
37,"AAA",0.00826446280991736
38,"AAA",0.00632911392405063
39,"AAA",0
40,"AAA",0.00485436893203883
41,"AAA",0.00613496932515337
42,"AAA",0.00671140939597315
43,"AAA",0.00775193798449612
44,"AAA",0
45,"AAA",0
46,"AAA",0
47,"AAA",0
48,"AAA",0
49,"AAA",0
50,"AAA",0
51,"AAA",NA
1,"AA",0.0526211964294521
2,"AA",0.0470456454774573
3,"AA",0.0366453057923225
4,"AA",0.0345133346974968
5,"AA",0.0305478043765604
6,"AA",0.0285690626035111
7,"AA",0.0252565114443567
8,"AA",0.0212191717077711
9,"AA",0.0222025739267119
10,"AA",0.0163218629795197
11,"AA",0.01
12,"AA",0.01
13,"AA",0.01
14,"AA",0.01
15,"AA",0.01
16,"AA",0.01
17,"AA",0.01
18,"AA",0.01
19,"AA",0.01
20,"AA",0.01
21,"AA",0.01
22,"AA",0.01
23,"AA",0.01
24,"AA",0.01
25,"AA",0.01
26,"AA",0.01
27,"AA",0.01
28,"AA",0.01
29,"AA",0.01
30,"AA",0.01
31,"AA",0.00590841949778434
32,"AA",0.00163934426229508
33,"AA",0.00346020761245675
34,"AA",0.0143540669856459
35,"AA",0.00257731958762887
36,"AA",0.00289017341040462
37,"AA",0
38,"AA",0.0075187969924812
39,"AA",0.00843881856540084
40,"AA",0
41,"AA",0.00699300699300699
42,"AA",0.00763358778625954
43,"AA",0.00833333333333333
44,"AA",0
45,"AA",0
46,"AA",0
47,"AA",0
48,"AA",0
49,"AA",0
50,"AA",0
51,"AA",0
1,"A",0.0441577772264947
2,"A",0.0363241535879972
3,"A",0.0333295863309353
4,"A",0.0297864368677407
5,"A",0.0241374607936724
6,"A",0.0244550355496523
7,"A",0.022970395555187
8,"A",0.0229566770879857
9,"A",0.0187642153146323
10,"A",0.0191493650473695
11,"A",0.01
12,"A",0.01
13,"A",0.01
14,"A",0.01
15,"A",0.01
16,"A",0.01
17,"A",0.01
18,"A",0.01
19,"A",0.01
20,"A",0.01
21,"A",0.01
22,"A",0.01
23,"A",0.01
24,"A",0.01
25,"A",0.01
26,"A",0.01
27,"A",0.01
28,"A",0.01
29,"A",0.01
30,"A",0.01
31,"A",0.0112994350282486
32,"A",0.0157728706624606
33,"A",0.00334448160535117
34,"A",0.00444444444444444
35,"A",0.00921658986175115
36,"A",0.00520833333333333
37,"A",0.0168539325842697
38,"A",0.00704225352112676
39,"A",0.0078125
40,"A",0
41,"A",0
42,"A",0
43,"A",0
44,"A",0
45,"A",0
46,"A",0
47,"A",0
48,"A",0
49,"A",NA
50,"A",NA
51,"A",NA
1,"B",0.0269501829950697
2,"B",0.0257906626506024
3,"B",0.023578302712161
4,"B",0.0223240685984624
5,"B",0.0211864406779661
6,"B",0.0220921450151057
7,"B",0.0189599133261105
8,"B",0.0204708290685773
9,"B",0.0201650576144503
10,"B",0.0191002764513697
11,"B",0.01
12,"B",0.01
13,"B",0.01
14,"B",0.01
15,"B",0.01
16,"B",0.01
17,"B",0.01
18,"B",0.01
19,"B",0.01
20,"B",0.01
21,"B",0.01
22,"B",0.01
23,"B",0.01
24,"B",0.01
25,"B",0.01
26,"B",0.01
27,"B",0.01
28,"B",0.01
29,"B",0.01
30,"B",0.01
31,"B",0.0194174757281553
32,"B",0.021978021978022
33,"B",0
34,"B",0.00934579439252336
35,"B",0.0212765957446809
36,"B",0.0117647058823529
37,"B",0
38,"B",0
39,"B",0
40,"B",0
41,"B",0
42,"B",0
43,"B",0
44,"B",0
45,"B",0
46,"B",0
47,"B",0
48,"B",0
49,"B",NA
50,"B",NA
51,"B",NA
1,"C",0.0263578274760383
2,"C",0.0229965974422152
3,"C",0.022866942975561
4,"C",0.021231073074391
5,"C",0.0168518518518519
6,"C",0.019855989526511
7,"C",0.018417945690673
8,"C",0.0185280494081318
9,"C",0.019700332963374
10,"C",0.0201900237529691
11,"C",0.01
12,"C",0.01
13,"C",0.01
14,"C",0.01
15,"C",0.01
16,"C",0.01
17,"C",0.01
18,"C",0.01
19,"C",0.01
20,"C",0.01
21,"C",0.01
22,"C",0.01
23,"C",0.01
24,"C",0.01
25,"C",0.01
26,"C",0.01
27,"C",0.01
28,"C",0.01
29,"C",0.01
30,"C",0.01
31,"C",0
32,"C",0
33,"C",0.0232558139534884
34,"C",0
35,"C",0
36,"C",0
37,"C",0
38,"C",0
39,"C",0
40,"C",0
41,"C",0
42,"C",0
43,"C",0
44,"C",0
45,"C",0
46,"C",NA
47,"C",NA
48,"C",NA
49,"C",NA
50,"C",NA
51,"C",NA
1,"D",0.0158992739637901
2,"D",0.0173913043478261
3,"D",0.0188894316886501
4,"D",0.0192088246481552
5,"D",0.0187056546979144
6,"D",0.0152652652652653
7,"D",0.0200814111261872
8,"D",0.0167204458785568
9,"D",0.0211958241062955
10,"D",0.0216018610834164
11,"D",0.01
12,"D",0.01
13,"D",0.01
14,"D",0.01
15,"D",0.01
16,"D",0.01
17,"D",0.01
18,"D",0.01
19,"D",0.01
20,"D",0.01
21,"D",0.01
22,"D",0.01
23,"D",0.01
24,"D",0.01
25,"D",0.01
26,"D",0.01
27,"D",0.01
28,"D",0.01
29,"D",0.01
30,"D",0.01
31,"D",0.00847457627118644
32,"D",0.0280373831775701
33,"D",0
34,"D",0.0101010101010101
35,"D",0.03125
36,"D",0.010989010989011
37,"D",0.0224719101123595
38,"D",0.012987012987013
39,"D",0
40,"D",0
41,"D",0.0161290322580645
42,"D",0
43,"D",0.0277777777777778
44,"D",0
45,"D",NA
46,"D",NA
47,"D",NA
48,"D",NA
49,"D",NA
50,"D",NA
51,"D",NA
